…
Explore various plot types
==========================

Now let's use plots to visualize how the data in the gapminder dataset looks.

First we will look at how life expectancy varies by \#Use filter, select and piping

We can also select only certain variables to display or work with, using the 'select' function:

``` r
select(gapminder, country, year, lifeExp)
```

    ## # A tibble: 1,704 x 3
    ##    country      year lifeExp
    ##    <fct>       <int>   <dbl>
    ##  1 Afghanistan  1952    28.8
    ##  2 Afghanistan  1957    30.3
    ##  3 Afghanistan  1962    32.0
    ##  4 Afghanistan  1967    34.0
    ##  5 Afghanistan  1972    36.1
    ##  6 Afghanistan  1977    38.4
    ##  7 Afghanistan  1982    39.9
    ##  8 Afghanistan  1987    40.8
    ##  9 Afghanistan  1992    41.7
    ## 10 Afghanistan  1997    41.8
    ## # ... with 1,694 more rows
…
